%YAML 1.1
%TAG !u! tag:unity3d.com,2011:
--- !u!74 &7400000
AnimationClip:
  m_ObjectHideFlags: 0
  m_PrefabParentObject: {fileID: 0}
  m_PrefabInternal: {fileID: 0}
  m_Name: Mine
  serializedVersion: 6
  m_Legacy: 0
  m_Compressed: 0
  m_UseHighQualityCurve: 1
  m_RotationCurves: []
  m_CompressedRotationCurves: []
  m_EulerCurves: []
  m_PositionCurves: []
  m_ScaleCurves: []
  m_FloatCurves: []
  m_PPtrCurves:
  - curve:
    - time: 0
      value: {fileID: 21300000, guid: a17efcf612df9564baaeddc18dccf5fa, type: 3}
    - time: 0.083333336
      value: {fileID: 21300000, guid: 4b618b0f2e316374fae22ec4b8699cb8, type: 3}
    - time: 0.16666667
      value: {fileID: 21300000, guid: a5f8b86f58f0e2f4db61e6024d50b8f3, type: 3}
    - time: 0.25
      value: {fileID: 21300000, guid: 1b72456b8979ac846b457ee6173c6ec8, type: 3}
    - time: 0.33333334
      value: {fileID: 21300000, guid: 308ef2c9339551f488b3a60476bfeac9, type: 3}
    - time: 0.41666666
      value: {fileID: 21300000, guid: 4352ea20e97b16c48bd2cb79e1f0e3c9, type: 3}
    - time: 0.5
      value: {fileID: 21300000, guid: f3958524186169c49b7bcefd6532ab86, type: 3}
    - time: 0.5833333
      value: {fileID: 21300000, guid: c3be77091ad65f54fb013033edcb4362, type: 3}
    - time: 0.6666667
      value: {fileID: 21300000, guid: 373b84192d98c64488fc46cb3ae6d9ab, type: 3}
    - time: 0.75
      value: {fileID: 21300000, guid: 454433b57aa46a5418f7702253f4b307, type: 3}
    - time: 0.8333333
      value: {fileID: 21300000, guid: 5bb26e6729c19584fa1c441e219b8dd2, type: 3}
    attribute: m_Sprite
    path: 
    classID: 212
    script: {fileID: 0}
  m_SampleRate: 12
  m_WrapMode: 0
  m_Bounds:
    m_Center: {x: 0, y: 0, z: 0}
    m_Extent: {x: 0, y: 0, z: 0}
  m_ClipBindingConstant:
    genericBindings:
    - serializedVersion: 2
      path: 0
      attribute: 0
      script: {fileID: 0}
      typeID: 212
      customType: 23
      isPPtrCurve: 1
    pptrCurveMapping:
    - {fileID: 21300000, guid: a17efcf612df9564baaeddc18dccf5fa, type: 3}
    - {fileID: 21300000, guid: 4b618b0f2e316374fae22ec4b8699cb8, type: 3}
    - {fileID: 21300000, guid: a5f8b86f58f0e2f4db61e6024d50b8f3, type: 3}
    - {fileID: 21300000, guid: 1b72456b8979ac846b457ee6173c6ec8, type: 3}
    - {fileID: 21300000, guid: 308ef2c9339551f488b3a60476bfeac9, type: 3}
    - {fileID: 21300000, guid: 4352ea20e97b16c48bd2cb79e1f0e3c9, type: 3}
    - {fileID: 21300000, guid: f3958524186169c49b7bcefd6532ab86, type: 3}
    - {fileID: 21300000, guid: c3be77091ad65f54fb013033edcb4362, type: 3}
    - {fileID: 21300000, guid: 373b84192d98c64488fc46cb3ae6d9ab, type: 3}
    - {fileID: 21300000, guid: 454433b57aa46a5418f7702253f4b307, type: 3}
    - {fileID: 21300000, guid: 5bb26e6729c19584fa1c441e219b8dd2, type: 3}
  m_AnimationClipSettings:
    serializedVersion: 2
    m_AdditiveReferencePoseClip: {fileID: 0}
    m_AdditiveReferencePoseTime: 0
    m_StartTime: 0
    m_StopTime: 0.9166666
    m_OrientationOffsetY: 0
    m_Level: 0
    m_CycleOffset: 0
    m_HasAdditiveReferencePose: 0
    m_LoopTime: 1
    m_LoopBlend: 0
    m_LoopBlendOrientation: 0
    m_LoopBlendPositionY: 0
    m_LoopBlendPositionXZ: 0
    m_KeepOriginalOrientation: 0
    m_KeepOriginalPositionY: 1
    m_KeepOriginalPositionXZ: 0
    m_HeightFromFeet: 0
    m_Mirror: 0
  m_EditorCurves: []
  m_EulerEditorCurves: []
  m_HasGenericRootTransform: 0
  m_HasMotionFloatCurves: 0
  m_GenerateMotionCurves: 0
  m_Events: []
